{
  "kafka": {
    "user": "KAFKA_USER",
    "password": "KAFKA_PASSWORD"
  },
  "mongodb": {
    "username": "MONGODB_USERNAME",
    "password": "MONGODB_PASSWORD"
  },
  "neo4j": {
    "username": "NEO4J_USERNAME",
    "password": "NEO4J_PASSWORD"
  },
  "redis": {
    "username": "REDIS_USERNAME",
    "password": "REDIS_PASSWORD"
  },
  "sendgrid": {
    "key": "SENDGRID_API_KEY"
  },
  "stripe": {
    "publicKey": "STRIPE_PUBLIC_KEY",
    "secretKey": "STRIPE_SECRET_KEY"
  }
}
